

================================================================
== Vivado HLS Report for 'dft'
================================================================
* Date:           Thu Feb 13 17:32:16 2020

* Version:        2019.1 (Build 2552052 on Fri May 24 15:28:33 MDT 2019)
* Project:        hls
* Solution:       solution1
* Product family: zynq
* Target device:  xc7z020-clg484-1


================================================================
== Performance Estimates
================================================================
+ Timing (ns): 
    * Summary: 
    +--------+-------+----------+------------+
    |  Clock | Target| Estimated| Uncertainty|
    +--------+-------+----------+------------+
    |ap_clk  |  10.00|     7.424|        1.25|
    +--------+-------+----------+------------+

+ Latency (clock cycles): 
    * Summary: 
    +---------+---------+---------+---------+---------+
    |      Latency      |      Interval     | Pipeline|
    |   min   |   max   |   min   |   max   |   Type  |
    +---------+---------+---------+---------+---------+
    |  1114625|  1114625|  1114625|  1114625|   none  |
    +---------+---------+---------+---------+---------+

    + Detail: 
        * Instance: 
        N/A

        * Loop: 
        +-------------+---------+---------+----------+-----------+-----------+------+----------+
        |             |      Latency      | Iteration|  Initiation Interval  | Trip |          |
        |  Loop Name  |   min   |   max   |  Latency |  achieved |   target  | Count| Pipelined|
        +-------------+---------+---------+----------+-----------+-----------+------+----------+
        |- Loop 1     |  1114624|  1114624|      4354|          -|          -|   256|    no    |
        | + Loop 1.1  |     4352|     4352|        17|          -|          -|   256|    no    |
        +-------------+---------+---------+----------+-----------+-----------+------+----------+



================================================================
== Utilization Estimates
================================================================
* Summary: 
+-----------------+---------+-------+--------+-------+-----+
|       Name      | BRAM_18K| DSP48E|   FF   |  LUT  | URAM|
+-----------------+---------+-------+--------+-------+-----+
|DSP              |        -|      -|       -|      -|    -|
|Expression       |        -|      0|       0|     97|    -|
|FIFO             |        -|      -|       -|      -|    -|
|Instance         |        -|     16|     982|   2064|    -|
|Memory           |        2|      -|       0|      0|    -|
|Multiplexer      |        -|      -|       -|    190|    -|
|Register         |        -|      -|     463|      -|    -|
+-----------------+---------+-------+--------+-------+-----+
|Total            |        2|     16|    1445|   2351|    0|
+-----------------+---------+-------+--------+-------+-----+
|Available        |      280|    220|  106400|  53200|    0|
+-----------------+---------+-------+--------+-------+-----+
|Utilization (%)  |    ~0   |      7|       1|      4|    0|
+-----------------+---------+-------+--------+-------+-----+

+ Detail: 
    * Instance: 
    +-------------------------+----------------------+---------+-------+-----+-----+-----+
    |         Instance        |        Module        | BRAM_18K| DSP48E|  FF | LUT | URAM|
    +-------------------------+----------------------+---------+-------+-----+-----+-----+
    |dft_fadd_32ns_32neOg_U2  |dft_fadd_32ns_32neOg  |        0|      2|  205|  390|    0|
    |dft_faddfsub_32nsdEe_U1  |dft_faddfsub_32nsdEe  |        0|      2|  205|  390|    0|
    |dft_fmul_32ns_32nfYi_U3  |dft_fmul_32ns_32nfYi  |        0|      3|  143|  321|    0|
    |dft_fmul_32ns_32nfYi_U4  |dft_fmul_32ns_32nfYi  |        0|      3|  143|  321|    0|
    |dft_fmul_32ns_32nfYi_U5  |dft_fmul_32ns_32nfYi  |        0|      3|  143|  321|    0|
    |dft_fmul_32ns_32nfYi_U6  |dft_fmul_32ns_32nfYi  |        0|      3|  143|  321|    0|
    +-------------------------+----------------------+---------+-------+-----+-----+-----+
    |Total                    |                      |        0|     16|  982| 2064|    0|
    +-------------------------+----------------------+---------+-------+-----+-----+-----+

    * DSP48E: 
    N/A

    * Memory: 
    +------------------------+----------------------+---------+---+----+-----+------+-----+------+-------------+
    |         Memory         |        Module        | BRAM_18K| FF| LUT| URAM| Words| Bits| Banks| W*Bits*Banks|
    +------------------------+----------------------+---------+---+----+-----+------+-----+------+-------------+
    |cos_coefficients_tab_U  |dft_cos_coefficiebkb  |        1|  0|   0|    0|   256|   32|     1|         8192|
    |sin_coefficients_tab_U  |dft_sin_coefficiecud  |        1|  0|   0|    0|   256|   32|     1|         8192|
    +------------------------+----------------------+---------+---+----+-----+------+-----+------+-------------+
    |Total                   |                      |        2|  0|   0|    0|   512|   64|     2|        16384|
    +------------------------+----------------------+---------+---+----+-----+------+-----+------+-------------+

    * FIFO: 
    N/A

    * Expression: 
    +---------------------+----------+-------+---+----+------------+------------+
    |    Variable Name    | Operation| DSP48E| FF| LUT| Bitwidth P0| Bitwidth P1|
    +---------------------+----------+-------+---+----+------------+------------+
    |z_fu_202_p2          |     *    |      0|  0|  41|           8|           8|
    |i_fu_174_p2          |     +    |      0|  0|  15|           1|           9|
    |j_fu_196_p2          |     +    |      0|  0|  15|           1|           9|
    |icmp_ln11_fu_168_p2  |   icmp   |      0|  0|  13|           9|          10|
    |icmp_ln13_fu_190_p2  |   icmp   |      0|  0|  13|           9|          10|
    +---------------------+----------+-------+---+----+------------+------------+
    |Total                |          |      0|  0|  97|          28|          46|
    +---------------------+----------+-------+---+----+------------+------------+

    * Multiplexer: 
    +-------------------+----+-----------+-----+-----------+
    |        Name       | LUT| Input Size| Bits| Total Bits|
    +-------------------+----+-----------+-----+-----------+
    |ap_NS_fsm          |  97|         20|    1|         20|
    |grp_fu_128_opcode  |  15|          3|    2|          6|
    |grp_fu_128_p0      |  15|          3|   32|         96|
    |grp_fu_128_p1      |  15|          3|   32|         96|
    |grp_fu_132_p0      |  15|          3|   32|         96|
    |grp_fu_132_p1      |  15|          3|   32|         96|
    |i_0_reg_106        |   9|          2|    9|         18|
    |j_0_reg_117        |   9|          2|    9|         18|
    +-------------------+----+-----------+-----+-----------+
    |Total              | 190|         39|  149|        446|
    +-------------------+----+-----------+-----+-----------+

    * Register: 
    +--------------------+----+----+-----+-----------+
    |        Name        | FF | LUT| Bits| Const Bits|
    +--------------------+----+----+-----+-----------+
    |IN_I_load_reg_288   |  32|   0|   32|          0|
    |IN_R_load_reg_282   |  32|   0|   32|          0|
    |OUT_I_addr_reg_237  |   8|   0|    8|          0|
    |OUT_I_load_reg_319  |  32|   0|   32|          0|
    |OUT_R_addr_reg_232  |   8|   0|    8|          0|
    |OUT_R_load_reg_314  |  32|   0|   32|          0|
    |ap_CS_fsm           |  19|   0|   19|          0|
    |c_reg_270           |  32|   0|   32|          0|
    |i_0_reg_106         |   9|   0|    9|          0|
    |i_reg_227           |   9|   0|    9|          0|
    |j_0_reg_117         |   9|   0|    9|          0|
    |j_reg_245           |   9|   0|    9|          0|
    |reg_152             |  32|   0|   32|          0|
    |reg_158             |  32|   0|   32|          0|
    |s_reg_276           |  32|   0|   32|          0|
    |tmp_1_reg_299       |  32|   0|   32|          0|
    |tmp_4_reg_304       |  32|   0|   32|          0|
    |tmp_5_reg_309       |  32|   0|   32|          0|
    |tmp_reg_294         |  32|   0|   32|          0|
    |trunc_ln14_reg_219  |   8|   0|    8|          0|
    +--------------------+----+----+-----+-----------+
    |Total               | 463|   0|  463|          0|
    +--------------------+----+----+-----+-----------+



================================================================
== Interface
================================================================
* Summary: 
+----------------+-----+-----+------------+--------------+--------------+
|    RTL Ports   | Dir | Bits|  Protocol  | Source Object|    C Type    |
+----------------+-----+-----+------------+--------------+--------------+
|ap_clk          |  in |    1| ap_ctrl_hs |      dft     | return value |
|ap_rst          |  in |    1| ap_ctrl_hs |      dft     | return value |
|ap_start        |  in |    1| ap_ctrl_hs |      dft     | return value |
|ap_done         | out |    1| ap_ctrl_hs |      dft     | return value |
|ap_idle         | out |    1| ap_ctrl_hs |      dft     | return value |
|ap_ready        | out |    1| ap_ctrl_hs |      dft     | return value |
|IN_R_address0   | out |    8|  ap_memory |     IN_R     |     array    |
|IN_R_ce0        | out |    1|  ap_memory |     IN_R     |     array    |
|IN_R_q0         |  in |   32|  ap_memory |     IN_R     |     array    |
|IN_I_address0   | out |    8|  ap_memory |     IN_I     |     array    |
|IN_I_ce0        | out |    1|  ap_memory |     IN_I     |     array    |
|IN_I_q0         |  in |   32|  ap_memory |     IN_I     |     array    |
|OUT_R_address0  | out |    8|  ap_memory |     OUT_R    |     array    |
|OUT_R_ce0       | out |    1|  ap_memory |     OUT_R    |     array    |
|OUT_R_we0       | out |    1|  ap_memory |     OUT_R    |     array    |
|OUT_R_d0        | out |   32|  ap_memory |     OUT_R    |     array    |
|OUT_R_q0        |  in |   32|  ap_memory |     OUT_R    |     array    |
|OUT_I_address0  | out |    8|  ap_memory |     OUT_I    |     array    |
|OUT_I_ce0       | out |    1|  ap_memory |     OUT_I    |     array    |
|OUT_I_we0       | out |    1|  ap_memory |     OUT_I    |     array    |
|OUT_I_d0        | out |   32|  ap_memory |     OUT_I    |     array    |
|OUT_I_q0        |  in |   32|  ap_memory |     OUT_I    |     array    |
+----------------+-----+-----+------------+--------------+--------------+

