

================================================================
== Vivado HLS Report for 'cordiccart2pol'
================================================================
* Date:           Mon Feb  3 18:33:03 2020

* Version:        2019.1 (Build 2552052 on Fri May 24 15:28:33 MDT 2019)
* Project:        cordiccart2pol
* Solution:       solution1
* Product family: zynq
* Target device:  xc7z020-clg400-1


================================================================
== Performance Estimates
================================================================
+ Timing (ns): 
    * Summary: 
    +--------+-------+----------+------------+
    |  Clock | Target| Estimated| Uncertainty|
    +--------+-------+----------+------------+
    |ap_clk  |  10.00|     8.703|        1.25|
    +--------+-------+----------+------------+

+ Latency (clock cycles): 
    * Summary: 
    +-----+-----+-----+-----+---------+
    |  Latency  |  Interval | Pipeline|
    | min | max | min | max |   Type  |
    +-----+-----+-----+-----+---------+
    |   50|   50|   50|   50|   none  |
    +-----+-----+-----+-----+---------+

    + Detail: 
        * Instance: 
        N/A

        * Loop: 
        +----------+-----+-----+----------+-----------+-----------+------+----------+
        |          |  Latency  | Iteration|  Initiation Interval  | Trip |          |
        | Loop Name| min | max |  Latency |  achieved |   target  | Count| Pipelined|
        +----------+-----+-----+----------+-----------+-----------+------+----------+
        |- Loop 1  |   48|   48|         3|          -|          -|    16|    no    |
        +----------+-----+-----+----------+-----------+-----------+------+----------+



================================================================
== Utilization Estimates
================================================================
* Summary: 
+-----------------+---------+-------+--------+-------+-----+
|       Name      | BRAM_18K| DSP48E|   FF   |  LUT  | URAM|
+-----------------+---------+-------+--------+-------+-----+
|DSP              |        -|      1|       -|      -|    -|
|Expression       |        -|      -|       0|    825|    -|
|FIFO             |        -|      -|       -|      -|    -|
|Instance         |        -|      -|       -|      -|    -|
|Memory           |        0|      -|      29|      8|    -|
|Multiplexer      |        -|      -|       -|     69|    -|
|Register         |        -|      -|     240|      -|    -|
+-----------------+---------+-------+--------+-------+-----+
|Total            |        0|      1|     269|    902|    0|
+-----------------+---------+-------+--------+-------+-----+
|Available        |      280|    220|  106400|  53200|    0|
+-----------------+---------+-------+--------+-------+-----+
|Utilization (%)  |        0|   ~0  |   ~0   |      1|    0|
+-----------------+---------+-------+--------+-------+-----+

+ Detail: 
    * Instance: 
    N/A

    * DSP48E: 
    +-------------------------+----------------------+-----------+
    |         Instance        |        Module        | Expression|
    +-------------------------+----------------------+-----------+
    |cordiccart2pol_mucud_U1  |cordiccart2pol_mucud  |  i0 * i1  |
    +-------------------------+----------------------+-----------+

    * Memory: 
    +------------+----------------------+---------+----+----+-----+------+-----+------+-------------+
    |   Memory   |        Module        | BRAM_18K| FF | LUT| URAM| Words| Bits| Banks| W*Bits*Banks|
    +------------+----------------------+---------+----+----+-----+------+-----+------+-------------+
    |angles_V_U  |cordiccart2pol_anbkb  |        0|  29|   8|    0|    16|   29|     1|          464|
    +------------+----------------------+---------+----+----+-----+------+-----+------+-------------+
    |Total       |                      |        0|  29|   8|    0|    16|   29|     1|          464|
    +------------+----------------------+---------+----+----+-----+------+-----+------+-------------+

    * FIFO: 
    N/A

    * Expression: 
    +---------------------------+----------+-------+---+----+------------+------------+
    |       Variable Name       | Operation| DSP48E| FF| LUT| Bitwidth P0| Bitwidth P1|
    +---------------------------+----------+-------+---+----+------------+------------+
    |acc_V_7_fu_368_p2          |     +    |      0|  0|  21|          15|          15|
    |acc_V_8_fu_926_p2          |     +    |      0|  0|  23|          16|          16|
    |i_V_fu_514_p2              |     +    |      0|  0|  15|           5|           1|
    |p_Val2_15_fu_751_p2        |     +    |      0|  0|  23|          16|          16|
    |p_Val2_7_fu_1105_p2        |     +    |      0|  0|  23|          16|          16|
    |ret_V_1_fu_737_p2          |     +    |      0|  0|  24|          17|          17|
    |r_V_9_fu_186_p2            |     -    |      0|  0|  23|           1|          16|
    |ret_V_2_fu_882_p2          |     -    |      0|  0|  40|          33|          33|
    |ret_V_fu_560_p2            |     -    |      0|  0|  24|          17|          17|
    |sub_ln1118_2_fu_222_p2     |     -    |      0|  0|  24|           1|          17|
    |sub_ln1118_3_fu_538_p2     |     -    |      0|  0|  23|           1|          16|
    |sub_ln1118_4_fu_716_p2     |     -    |      0|  0|  24|           1|          17|
    |sub_ln1118_5_fu_855_p2     |     -    |      0|  0|  37|           1|          30|
    |sub_ln1118_fu_172_p2       |     -    |      0|  0|  23|           1|          16|
    |and_ln340_1_fu_494_p2      |    and   |      0|  0|   2|           1|           1|
    |and_ln340_2_fu_1244_p2     |    and   |      0|  0|   2|           1|           1|
    |and_ln340_3_fu_684_p2      |    and   |      0|  0|   2|           1|           1|
    |and_ln340_4_fu_819_p2      |    and   |      0|  0|   2|           1|           1|
    |and_ln340_5_fu_1082_p2     |    and   |      0|  0|   2|           1|           1|
    |and_ln340_fu_310_p2        |    and   |      0|  0|   2|           1|           1|
    |and_ln781_1_fu_1006_p2     |    and   |      0|  0|   2|           1|           1|
    |and_ln781_fu_1172_p2       |    and   |      0|  0|   2|           1|           1|
    |and_ln785_10_fu_825_p2     |    and   |      0|  0|   2|           1|           1|
    |and_ln785_11_fu_831_p2     |    and   |      0|  0|   2|           1|           1|
    |and_ln785_13_fu_1070_p2    |    and   |      0|  0|   2|           1|           1|
    |and_ln785_1_fu_322_p2      |    and   |      0|  0|   2|           1|           1|
    |and_ln785_5_fu_1232_p2     |    and   |      0|  0|   2|           1|           1|
    |and_ln785_7_fu_690_p2      |    and   |      0|  0|   2|           1|           1|
    |and_ln785_8_fu_695_p2      |    and   |      0|  0|   2|           1|           1|
    |and_ln785_fu_316_p2        |    and   |      0|  0|   2|           1|           1|
    |and_ln786_1_fu_1210_p2     |    and   |      0|  0|   2|           1|           1|
    |and_ln786_2_fu_1048_p2     |    and   |      0|  0|   2|           1|           1|
    |and_ln786_3_fu_282_p2      |    and   |      0|  0|   2|           1|           1|
    |and_ln786_4_fu_661_p2      |    and   |      0|  0|   2|           1|           1|
    |and_ln786_5_fu_791_p2      |    and   |      0|  0|   2|           1|           1|
    |and_ln786_fu_466_p2        |    and   |      0|  0|   2|           1|           1|
    |carry_1_fu_392_p2          |    and   |      0|  0|   2|           1|           1|
    |carry_3_fu_1124_p2         |    and   |      0|  0|   2|           1|           1|
    |carry_5_fu_946_p2          |    and   |      0|  0|   2|           1|           1|
    |deleted_ones_1_fu_1167_p2  |    and   |      0|  0|   2|           1|           1|
    |deleted_ones_2_fu_1000_p2  |    and   |      0|  0|   2|           1|           1|
    |deleted_ones_fu_424_p2     |    and   |      0|  0|   2|           1|           1|
    |neg_src_10_fu_1183_p2      |    and   |      0|  0|   2|           1|           1|
    |neg_src_9_fu_1018_p2       |    and   |      0|  0|   2|           1|           1|
    |neg_src_fu_442_p2          |    and   |      0|  0|   2|           1|           1|
    |overflow_2_fu_460_p2       |    and   |      0|  0|   2|           1|           1|
    |overflow_3_fu_1204_p2      |    and   |      0|  0|   2|           1|           1|
    |overflow_4_fu_655_p2       |    and   |      0|  0|   2|           1|           1|
    |overflow_5_fu_785_p2       |    and   |      0|  0|   2|           1|           1|
    |overflow_6_fu_1042_p2      |    and   |      0|  0|   2|           1|           1|
    |overflow_fu_276_p2         |    and   |      0|  0|   2|           1|           1|
    |r_V_4_fu_532_p2            |   ashr   |      0|  0|  35|          16|          16|
    |r_V_6_fu_594_p2            |   ashr   |      0|  0|  35|          16|          16|
    |icmp_ln29_fu_508_p2        |   icmp   |      0|  0|  11|           5|           6|
    |or_ln1495_fu_436_p2        |    or    |      0|  0|   2|           1|           1|
    |or_ln340_1_fu_472_p2       |    or    |      0|  0|   2|           1|           1|
    |or_ln340_2_fu_671_p2       |    or    |      0|  0|   2|           1|           1|
    |or_ln340_3_fu_1216_p2      |    or    |      0|  0|   2|           1|           1|
    |or_ln340_4_fu_803_p2       |    or    |      0|  0|   2|           1|           1|
    |or_ln340_5_fu_1054_p2      |    or    |      0|  0|   2|           1|           1|
    |or_ln340_6_fu_1250_p2      |    or    |      0|  0|   2|           1|           1|
    |or_ln340_7_fu_1088_p2      |    or    |      0|  0|   2|           1|           1|
    |or_ln340_fu_294_p2         |    or    |      0|  0|   2|           1|           1|
    |or_ln416_1_fu_994_p2       |    or    |      0|  0|   2|           1|           1|
    |or_ln416_2_fu_418_p2       |    or    |      0|  0|   2|           1|           1|
    |or_ln416_3_fu_1155_p2      |    or    |      0|  0|   2|           1|           1|
    |or_ln416_4_fu_988_p2       |    or    |      0|  0|   2|           1|           1|
    |or_ln416_fu_1161_p2        |    or    |      0|  0|   2|           1|           1|
    |or_ln785_1_fu_454_p2       |    or    |      0|  0|   2|           1|           1|
    |or_ln785_2_fu_646_p2       |    or    |      0|  0|   2|           1|           1|
    |or_ln785_3_fu_1193_p2      |    or    |      0|  0|   2|           1|           1|
    |or_ln785_4_fu_773_p2       |    or    |      0|  0|   2|           1|           1|
    |or_ln785_5_fu_1030_p2      |    or    |      0|  0|   2|           1|           1|
    |or_ln785_6_fu_328_p2       |    or    |      0|  0|   2|           1|           1|
    |or_ln785_7_fu_700_p2       |    or    |      0|  0|   2|           1|           1|
    |or_ln785_8_fu_837_p2       |    or    |      0|  0|   2|           1|           1|
    |or_ln785_fu_264_p2         |    or    |      0|  0|   2|           1|           1|
    |acc_V_5_fu_500_p3          |  select  |      0|  0|  16|           1|          16|
    |acc_V_6_fu_1094_p3         |  select  |      0|  0|  16|           1|          16|
    |p_Val2_3_fu_350_p3         |  select  |      0|  0|  15|           1|          15|
    |r_V                        |  select  |      0|  0|  16|           1|          16|
    |r_V_10_fu_228_p3           |  select  |      0|  0|  17|           1|          17|
    |r_V_11_fu_544_p3           |  select  |      0|  0|  16|           1|          16|
    |r_V_12_fu_722_p3           |  select  |      0|  0|  17|           1|          17|
    |r_V_13_fu_861_p3           |  select  |      0|  0|  30|           1|          30|
    |select_ln1118_fu_178_p3    |  select  |      0|  0|  16|           1|          16|
    |select_ln785_1_fu_334_p3   |  select  |      0|  0|  16|           1|          16|
    |select_ln785_2_fu_706_p3   |  select  |      0|  0|  16|           1|          16|
    |select_ln785_3_fu_843_p3   |  select  |      0|  0|  16|           1|          16|
    |select_ln785_fu_210_p3     |  select  |      0|  0|  16|           1|          16|
    |xor_ln1495_fu_430_p2       |    xor   |      0|  0|   2|           1|           2|
    |xor_ln415_fu_358_p2        |    xor   |      0|  0|   2|           1|           2|
    |xor_ln416_2_fu_386_p2      |    xor   |      0|  0|   2|           1|           2|
    |xor_ln416_3_fu_412_p2      |    xor   |      0|  0|   2|           1|           2|
    |xor_ln416_4_fu_1118_p2     |    xor   |      0|  0|   2|           1|           2|
    |xor_ln416_5_fu_1150_p2     |    xor   |      0|  0|   2|           1|           2|
    |xor_ln416_6_fu_982_p2      |    xor   |      0|  0|   2|           1|           2|
    |xor_ln416_fu_940_p2        |    xor   |      0|  0|   2|           1|           2|
    |xor_ln779_1_fu_1144_p2     |    xor   |      0|  0|   2|           1|           2|
    |xor_ln779_2_fu_976_p2      |    xor   |      0|  0|   2|           1|           2|
    |xor_ln779_fu_406_p2        |    xor   |      0|  0|   2|           1|           2|
    |xor_ln781_1_fu_1012_p2     |    xor   |      0|  0|   2|           2|           1|
    |xor_ln781_fu_1177_p2       |    xor   |      0|  0|   2|           2|           1|
    |xor_ln785_1_fu_448_p2      |    xor   |      0|  0|   2|           1|           1|
    |xor_ln785_2_fu_1188_p2     |    xor   |      0|  0|   2|           1|           1|
    |xor_ln785_3_fu_650_p2      |    xor   |      0|  0|   2|           1|           2|
    |xor_ln785_4_fu_1199_p2     |    xor   |      0|  0|   2|           1|           2|
    |xor_ln785_5_fu_779_p2      |    xor   |      0|  0|   2|           1|           2|
    |xor_ln785_6_fu_1024_p2     |    xor   |      0|  0|   2|           1|           1|
    |xor_ln785_7_fu_1036_p2     |    xor   |      0|  0|   2|           1|           2|
    |xor_ln785_fu_270_p2        |    xor   |      0|  0|   2|           1|           2|
    |xor_ln786_1_fu_488_p2      |    xor   |      0|  0|   2|           2|           1|
    |xor_ln786_2_fu_1238_p2     |    xor   |      0|  0|   2|           2|           1|
    |xor_ln786_3_fu_665_p2      |    xor   |      0|  0|   2|           2|           1|
    |xor_ln786_4_fu_797_p2      |    xor   |      0|  0|   2|           2|           1|
    |xor_ln786_5_fu_1076_p2     |    xor   |      0|  0|   2|           2|           1|
    |xor_ln786_fu_288_p2        |    xor   |      0|  0|   2|           2|           1|
    +---------------------------+----------+-------+---+----+------------+------------+
    |Total                      |          |      0|  0| 825|         286|         607|
    +---------------------------+----------+-------+---+----+------------+------------+

    * Multiplexer: 
    +-------------------+----+-----------+-----+-----------+
    |        Name       | LUT| Input Size| Bits| Total Bits|
    +-------------------+----+-----------+-----+-----------+
    |ap_NS_fsm          |  33|          6|    1|          6|
    |p_Val2_12_reg_123  |   9|          2|   16|         32|
    |p_Val2_16_reg_133  |   9|          2|   16|         32|
    |t_V_reg_153        |   9|          2|    5|         10|
    |x_i_V_reg_144      |   9|          2|   16|         32|
    +-------------------+----+-----------+-----+-----------+
    |Total              |  69|         14|   54|        112|
    +-------------------+----+-----------+-----+-----------+

    * Register: 
    +----------------------------+----+----+-----+-----------+
    |            Name            | FF | LUT| Bits| Const Bits|
    +----------------------------+----+----+-----+-----------+
    |Range2_all_ones_1_reg_1369  |   1|   0|    1|          0|
    |ap_CS_fsm                   |   5|   0|    5|          0|
    |i_V_reg_1294                |   5|   0|    5|          0|
    |p_Result_29_reg_1305        |   1|   0|    1|          0|
    |p_Result_30_reg_1318        |   1|   0|    1|          0|
    |p_Result_37_reg_1347        |   1|   0|    1|          0|
    |p_Result_38_reg_1358        |   1|   0|    1|          0|
    |p_Val2_11_reg_1312          |  16|   0|   16|          0|
    |p_Val2_12_reg_123           |  16|   0|   16|          0|
    |p_Val2_16_reg_133           |  16|   0|   16|          0|
    |p_Val2_6_reg_1353           |  16|   0|   16|          0|
    |r_V_14_reg_1342             |  30|   0|   30|          0|
    |r_V_6_reg_1332              |  16|   0|   16|          0|
    |select_ln785_2_reg_1376     |  16|   0|   16|          0|
    |select_ln785_3_reg_1381     |  16|   0|   16|          0|
    |sub_ln1118_5_reg_1391       |  30|   0|   30|          0|
    |t_V_reg_153                 |   5|   0|    5|          0|
    |tmp_11_reg_1364             |   1|   0|    1|          0|
    |tmp_17_reg_1299             |   1|   0|    1|          0|
    |tmp_20_reg_1325             |   1|   0|    1|          0|
    |x_i_V_reg_144               |  16|   0|   16|          0|
    |zext_ln1118_reg_1386        |  29|   0|   30|          1|
    +----------------------------+----+----+-----+-----------+
    |Total                       | 240|   0|  241|          1|
    +----------------------------+----+----+-----+-----------+



================================================================
== Interface
================================================================
* Summary: 
+----------------+-----+-----+------------+----------------+--------------+
|    RTL Ports   | Dir | Bits|  Protocol  |  Source Object |    C Type    |
+----------------+-----+-----+------------+----------------+--------------+
|ap_clk          |  in |    1| ap_ctrl_hs | cordiccart2pol | return value |
|ap_rst          |  in |    1| ap_ctrl_hs | cordiccart2pol | return value |
|ap_start        |  in |    1| ap_ctrl_hs | cordiccart2pol | return value |
|ap_done         | out |    1| ap_ctrl_hs | cordiccart2pol | return value |
|ap_idle         | out |    1| ap_ctrl_hs | cordiccart2pol | return value |
|ap_ready        | out |    1| ap_ctrl_hs | cordiccart2pol | return value |
|x_V             |  in |   16|   ap_none  |       x_V      |    scalar    |
|y_V             |  in |   16|   ap_none  |       y_V      |    scalar    |
|r_V             | out |   16|   ap_vld   |       r_V      |    pointer   |
|r_V_ap_vld      | out |    1|   ap_vld   |       r_V      |    pointer   |
|theta_V         | out |   16|   ap_vld   |     theta_V    |    pointer   |
|theta_V_ap_vld  | out |    1|   ap_vld   |     theta_V    |    pointer   |
+----------------+-----+-----+------------+----------------+--------------+

